{
  "url": "https://github.com/NixOS/nixpkgs.git",
  "rev": "d3ebf03151a2857272006b54ba5f4b88e3354f02",
  "date": "2021-07-05T21:27:18-07:00",
  "path": "/nix/store/hfvphy0fnsx891wrn6xklg9sjr60f0qx-nixpkgs",
  "sha256": "1vvsjanpclvc5v1a5ljsz7b92ysz75vdg3aa4k7g2glg81dlbscj",
  "fetchSubmodules": false,
  "deepClone": false,
  "leaveDotGit": false
}
